Eksempel 1
…
Warning: Expecting numeric in T1161 / R1161C20: got 'Hudtx.'

New names:
• `2. gangs inngrep` -> `2. gangs inngrep...10`
• `3. gangs inngrep` -> `3. gangs inngrep...12`
• `4. gangs inngrep` -> `4. gangs inngrep...14`
• `2. gangs inngrep` -> `2. gangs inngrep...19`
• `3. gangs inngrep` -> `3. gangs inngrep...20`
• `4. gangs inngrep` -> `4. gangs inngrep...21`

# Antall unike pasienter - 540?
(pasienter <- df |> distinct(Navn, Fødselsdato))

# A tibble: 540 × 2
   Navn          Fødselsdato        
   <chr>         <dttm>             
 1 Jacobsen, RI  1970-03-16 00:00:00
 2 Eknes, E      1956-02-18 00:00:00
 3 Andersson, T  1971-02-26 00:00:00
 4 Herland, E    1950-04-20 00:00:00
 5 Borgan, J     1952-04-22 00:00:00
 6 Kjønnøy, K    1917-07-09 00:00:00
 7 Akselberg, KO 1962-06-20 00:00:00
 8 Nymoen, T     1962-04-06 00:00:00
 9 Bhatti, H     1957-02-15 00:00:00
10 Hansson, US   1964-01-23 00:00:00
# ℹ 530 more rows
…
